%YAML 1.1
%TAG !u! tag:unity3d.com,2011:
--- !u!1045 &1
EditorBuildSettings:
  m_ObjectHideFlags: 0
  serializedVersion: 2
  m_Scenes: []
  m_configObjects:
    Unity.XR.OpenVR.Settings: {fileID: 11400000, guid: 444f28651a87a48498f43fd6eb96a57e,
      type: 2}
    com.unity.xr.management.loader_settings: {fileID: 11400000, guid: d48f95b6b9f998247a73ef8f1927f6a2,
      type: 2}
