%YAML 1.1
%TAG !u! tag:unity3d.com,2011:
--- !u!1 &3011719480010665098
GameObject:
  m_ObjectHideFlags: 0
  m_CorrespondingSourceObject: {fileID: 0}
  m_PrefabInstance: {fileID: 0}
  m_PrefabAsset: {fileID: 0}
  serializedVersion: 6
  m_Component:
  - component: {fileID: 3011719480010665099}
  m_Layer: 0
  m_Name: player
  m_TagString: Untagged
  m_Icon: {fileID: 0}
  m_NavMeshLayer: 0
  m_StaticEditorFlags: 0
  m_IsActive: 1
--- !u!4 &3011719480010665099
Transform:
  m_ObjectHideFlags: 0
  m_CorrespondingSourceObject: {fileID: 0}
  m_PrefabInstance: {fileID: 0}
  m_PrefabAsset: {fileID: 0}
  m_GameObject: {fileID: 3011719480010665098}
  m_LocalRotation: {x: 0, y: 0, z: 0, w: 1}
  m_LocalPosition: {x: 0, y: 0, z: 0}
  m_LocalScale: {x: 1, y: 1, z: 1}
  m_Children:
  - {fileID: 3011719480791683669}
  - {fileID: 3011719481078354533}
  m_Father: {fileID: 0}
  m_RootOrder: 0
  m_LocalEulerAnglesHint: {x: 0, y: 0, z: 0}
--- !u!1001 &3011719480791305547
PrefabInstance:
  m_ObjectHideFlags: 0
  serializedVersion: 2
  m_Modification:
    m_TransformParent: {fileID: 3011719480010665099}
    m_Modifications:
    - target: {fileID: 152968, guid: 12ee41758a687f54e98120e486ccd16e, type: 3}
      propertyPath: m_Name
      value: VivePointers
      objectReference: {fileID: 0}
    - target: {fileID: 450334, guid: 12ee41758a687f54e98120e486ccd16e, type: 3}
      propertyPath: m_LocalPosition.x
      value: 0
      objectReference: {fileID: 0}
    - target: {fileID: 450334, guid: 12ee41758a687f54e98120e486ccd16e, type: 3}
      propertyPath: m_LocalPosition.y
      value: 0
      objectReference: {fileID: 0}
    - target: {fileID: 450334, guid: 12ee41758a687f54e98120e486ccd16e, type: 3}
      propertyPath: m_LocalPosition.z
      value: 0
      objectReference: {fileID: 0}
    - target: {fileID: 450334, guid: 12ee41758a687f54e98120e486ccd16e, type: 3}
      propertyPath: m_LocalRotation.x
      value: 0
      objectReference: {fileID: 0}
    - target: {fileID: 450334, guid: 12ee41758a687f54e98120e486ccd16e, type: 3}
      propertyPath: m_LocalRotation.y
      value: 0
      objectReference: {fileID: 0}
    - target: {fileID: 450334, guid: 12ee41758a687f54e98120e486ccd16e, type: 3}
      propertyPath: m_LocalRotation.z
      value: 0
      objectReference: {fileID: 0}
    - target: {fileID: 450334, guid: 12ee41758a687f54e98120e486ccd16e, type: 3}
      propertyPath: m_LocalRotation.w
      value: 1
      objectReference: {fileID: 0}
    - target: {fileID: 450334, guid: 12ee41758a687f54e98120e486ccd16e, type: 3}
      propertyPath: m_RootOrder
      value: 0
      objectReference: {fileID: 0}
    - target: {fileID: 450334, guid: 12ee41758a687f54e98120e486ccd16e, type: 3}
      propertyPath: m_LocalEulerAnglesHint.x
      value: 0
      objectReference: {fileID: 0}
    - target: {fileID: 450334, guid: 12ee41758a687f54e98120e486ccd16e, type: 3}
      propertyPath: m_LocalEulerAnglesHint.y
      value: 0
      objectReference: {fileID: 0}
    - target: {fileID: 450334, guid: 12ee41758a687f54e98120e486ccd16e, type: 3}
      propertyPath: m_LocalEulerAnglesHint.z
      value: 0
      objectReference: {fileID: 0}
    m_RemovedComponents: []
  m_SourcePrefab: {fileID: 100100000, guid: 12ee41758a687f54e98120e486ccd16e, type: 3}
--- !u!4 &3011719480791683669 stripped
Transform:
  m_CorrespondingSourceObject: {fileID: 450334, guid: 12ee41758a687f54e98120e486ccd16e,
    type: 3}
  m_PrefabInstance: {fileID: 3011719480791305547}
  m_PrefabAsset: {fileID: 0}
--- !u!1001 &3011719481078285109
PrefabInstance:
  m_ObjectHideFlags: 0
  serializedVersion: 2
  m_Modification:
    m_TransformParent: {fileID: 3011719480010665099}
    m_Modifications:
    - target: {fileID: 175660, guid: cb3370c18187bb444b240cfb08dcc02f, type: 3}
      propertyPath: m_Name
      value: ViveCameraRig
      objectReference: {fileID: 0}
    - target: {fileID: 463184, guid: cb3370c18187bb444b240cfb08dcc02f, type: 3}
      propertyPath: m_LocalPosition.x
      value: 0
      objectReference: {fileID: 0}
    - target: {fileID: 463184, guid: cb3370c18187bb444b240cfb08dcc02f, type: 3}
      propertyPath: m_LocalPosition.y
      value: 0
      objectReference: {fileID: 0}
    - target: {fileID: 463184, guid: cb3370c18187bb444b240cfb08dcc02f, type: 3}
      propertyPath: m_LocalPosition.z
      value: 0
      objectReference: {fileID: 0}
    - target: {fileID: 463184, guid: cb3370c18187bb444b240cfb08dcc02f, type: 3}
      propertyPath: m_LocalRotation.x
      value: 0
      objectReference: {fileID: 0}
    - target: {fileID: 463184, guid: cb3370c18187bb444b240cfb08dcc02f, type: 3}
      propertyPath: m_LocalRotation.y
      value: 0
      objectReference: {fileID: 0}
    - target: {fileID: 463184, guid: cb3370c18187bb444b240cfb08dcc02f, type: 3}
      propertyPath: m_LocalRotation.z
      value: 0
      objectReference: {fileID: 0}
    - target: {fileID: 463184, guid: cb3370c18187bb444b240cfb08dcc02f, type: 3}
      propertyPath: m_LocalRotation.w
      value: 1
      objectReference: {fileID: 0}
    - target: {fileID: 463184, guid: cb3370c18187bb444b240cfb08dcc02f, type: 3}
      propertyPath: m_RootOrder
      value: 1
      objectReference: {fileID: 0}
    - target: {fileID: 463184, guid: cb3370c18187bb444b240cfb08dcc02f, type: 3}
      propertyPath: m_LocalEulerAnglesHint.x
      value: 0
      objectReference: {fileID: 0}
    - target: {fileID: 463184, guid: cb3370c18187bb444b240cfb08dcc02f, type: 3}
      propertyPath: m_LocalEulerAnglesHint.y
      value: 0
      objectReference: {fileID: 0}
    - target: {fileID: 463184, guid: cb3370c18187bb444b240cfb08dcc02f, type: 3}
      propertyPath: m_LocalEulerAnglesHint.z
      value: 0
      objectReference: {fileID: 0}
    m_RemovedComponents: []
  m_SourcePrefab: {fileID: 100100000, guid: cb3370c18187bb444b240cfb08dcc02f, type: 3}
--- !u!4 &3011719481078354533 stripped
Transform:
  m_CorrespondingSourceObject: {fileID: 463184, guid: cb3370c18187bb444b240cfb08dcc02f,
    type: 3}
  m_PrefabInstance: {fileID: 3011719481078285109}
  m_PrefabAsset: {fileID: 0}
