%YAML 1.1
%TAG !u! tag:unity3d.com,2011:
--- !u!1001 &4618518794862054573
PrefabInstance:
  m_ObjectHideFlags: 0
  serializedVersion: 2
  m_Modification:
    m_TransformParent: {fileID: 0}
    m_Modifications:
    - target: {fileID: -8679921383154817045, guid: d965d4e97c0d9411a914bab692d204e5,
        type: 3}
      propertyPath: m_LocalPosition.x
      value: 0
      objectReference: {fileID: 0}
    - target: {fileID: -8679921383154817045, guid: d965d4e97c0d9411a914bab692d204e5,
        type: 3}
      propertyPath: m_LocalPosition.y
      value: -0.105
      objectReference: {fileID: 0}
    - target: {fileID: -8679921383154817045, guid: d965d4e97c0d9411a914bab692d204e5,
        type: 3}
      propertyPath: m_LocalPosition.z
      value: 0.2099
      objectReference: {fileID: 0}
    - target: {fileID: -8679921383154817045, guid: d965d4e97c0d9411a914bab692d204e5,
        type: 3}
      propertyPath: m_LocalRotation.x
      value: -0
      objectReference: {fileID: 0}
    - target: {fileID: -8679921383154817045, guid: d965d4e97c0d9411a914bab692d204e5,
        type: 3}
      propertyPath: m_LocalRotation.y
      value: -0.6601954
      objectReference: {fileID: 0}
    - target: {fileID: -8679921383154817045, guid: d965d4e97c0d9411a914bab692d204e5,
        type: 3}
      propertyPath: m_LocalRotation.z
      value: -0
      objectReference: {fileID: 0}
    - target: {fileID: -8679921383154817045, guid: d965d4e97c0d9411a914bab692d204e5,
        type: 3}
      propertyPath: m_LocalRotation.w
      value: 0.751094
      objectReference: {fileID: 0}
    - target: {fileID: -8679921383154817045, guid: d965d4e97c0d9411a914bab692d204e5,
        type: 3}
      propertyPath: m_RootOrder
      value: 0
      objectReference: {fileID: 0}
    - target: {fileID: -8679921383154817045, guid: d965d4e97c0d9411a914bab692d204e5,
        type: 3}
      propertyPath: m_LocalEulerAnglesHint.x
      value: 0
      objectReference: {fileID: 0}
    - target: {fileID: -8679921383154817045, guid: d965d4e97c0d9411a914bab692d204e5,
        type: 3}
      propertyPath: m_LocalEulerAnglesHint.y
      value: -82.630005
      objectReference: {fileID: 0}
    - target: {fileID: -8679921383154817045, guid: d965d4e97c0d9411a914bab692d204e5,
        type: 3}
      propertyPath: m_LocalEulerAnglesHint.z
      value: 0
      objectReference: {fileID: 0}
    - target: {fileID: -8679921383154817045, guid: d965d4e97c0d9411a914bab692d204e5,
        type: 3}
      propertyPath: m_LocalScale.x
      value: 0.34583
      objectReference: {fileID: 0}
    - target: {fileID: -8679921383154817045, guid: d965d4e97c0d9411a914bab692d204e5,
        type: 3}
      propertyPath: m_LocalScale.y
      value: 0.34583
      objectReference: {fileID: 0}
    - target: {fileID: -8679921383154817045, guid: d965d4e97c0d9411a914bab692d204e5,
        type: 3}
      propertyPath: m_LocalScale.z
      value: 0.34583
      objectReference: {fileID: 0}
    - target: {fileID: -7872855388333474398, guid: d965d4e97c0d9411a914bab692d204e5,
        type: 3}
      propertyPath: m_LocalPosition.x
      value: -0.168
      objectReference: {fileID: 0}
    - target: {fileID: -7872855388333474398, guid: d965d4e97c0d9411a914bab692d204e5,
        type: 3}
      propertyPath: m_LocalPosition.z
      value: -0.009
      objectReference: {fileID: 0}
    - target: {fileID: -7872855388333474398, guid: d965d4e97c0d9411a914bab692d204e5,
        type: 3}
      propertyPath: m_LocalPosition.y
      value: -0.159
      objectReference: {fileID: 0}
    - target: {fileID: -7872855388333474398, guid: d965d4e97c0d9411a914bab692d204e5,
        type: 3}
      propertyPath: m_LocalScale.x
      value: 0.58009
      objectReference: {fileID: 0}
    - target: {fileID: -7872855388333474398, guid: d965d4e97c0d9411a914bab692d204e5,
        type: 3}
      propertyPath: m_LocalScale.y
      value: 0.58009
      objectReference: {fileID: 0}
    - target: {fileID: -7872855388333474398, guid: d965d4e97c0d9411a914bab692d204e5,
        type: 3}
      propertyPath: m_LocalScale.z
      value: 0.58009
      objectReference: {fileID: 0}
    - target: {fileID: 919132149155446097, guid: d965d4e97c0d9411a914bab692d204e5,
        type: 3}
      propertyPath: m_Name
      value: ala_izq
      objectReference: {fileID: 0}
    m_RemovedComponents: []
  m_SourcePrefab: {fileID: 100100000, guid: d965d4e97c0d9411a914bab692d204e5, type: 3}
