%YAML 1.1
%TAG !u! tag:unity3d.com,2011:
--- !u!1001 &5685013948617283251
PrefabInstance:
  m_ObjectHideFlags: 0
  serializedVersion: 2
  m_Modification:
    m_TransformParent: {fileID: 0}
    m_Modifications:
    - target: {fileID: -8679921383154817045, guid: 4a5c4091d289a43fda4c16229ee11eed,
        type: 3}
      propertyPath: m_LocalPosition.x
      value: 16.74634
      objectReference: {fileID: 0}
    - target: {fileID: -8679921383154817045, guid: 4a5c4091d289a43fda4c16229ee11eed,
        type: 3}
      propertyPath: m_LocalPosition.y
      value: 0.21973991
      objectReference: {fileID: 0}
    - target: {fileID: -8679921383154817045, guid: 4a5c4091d289a43fda4c16229ee11eed,
        type: 3}
      propertyPath: m_LocalPosition.z
      value: 31.657839
      objectReference: {fileID: 0}
    - target: {fileID: -8679921383154817045, guid: 4a5c4091d289a43fda4c16229ee11eed,
        type: 3}
      propertyPath: m_LocalRotation.x
      value: 0
      objectReference: {fileID: 0}
    - target: {fileID: -8679921383154817045, guid: 4a5c4091d289a43fda4c16229ee11eed,
        type: 3}
      propertyPath: m_LocalRotation.y
      value: -0
      objectReference: {fileID: 0}
    - target: {fileID: -8679921383154817045, guid: 4a5c4091d289a43fda4c16229ee11eed,
        type: 3}
      propertyPath: m_LocalRotation.z
      value: -0
      objectReference: {fileID: 0}
    - target: {fileID: -8679921383154817045, guid: 4a5c4091d289a43fda4c16229ee11eed,
        type: 3}
      propertyPath: m_LocalRotation.w
      value: 1
      objectReference: {fileID: 0}
    - target: {fileID: -8679921383154817045, guid: 4a5c4091d289a43fda4c16229ee11eed,
        type: 3}
      propertyPath: m_RootOrder
      value: 0
      objectReference: {fileID: 0}
    - target: {fileID: -8679921383154817045, guid: 4a5c4091d289a43fda4c16229ee11eed,
        type: 3}
      propertyPath: m_LocalEulerAnglesHint.x
      value: 0
      objectReference: {fileID: 0}
    - target: {fileID: -8679921383154817045, guid: 4a5c4091d289a43fda4c16229ee11eed,
        type: 3}
      propertyPath: m_LocalEulerAnglesHint.y
      value: 0
      objectReference: {fileID: 0}
    - target: {fileID: -8679921383154817045, guid: 4a5c4091d289a43fda4c16229ee11eed,
        type: 3}
      propertyPath: m_LocalEulerAnglesHint.z
      value: 0
      objectReference: {fileID: 0}
    - target: {fileID: -8679921383154817045, guid: 4a5c4091d289a43fda4c16229ee11eed,
        type: 3}
      propertyPath: m_LocalScale.x
      value: 20
      objectReference: {fileID: 0}
    - target: {fileID: -8679921383154817045, guid: 4a5c4091d289a43fda4c16229ee11eed,
        type: 3}
      propertyPath: m_LocalScale.y
      value: 20
      objectReference: {fileID: 0}
    - target: {fileID: -8679921383154817045, guid: 4a5c4091d289a43fda4c16229ee11eed,
        type: 3}
      propertyPath: m_LocalScale.z
      value: 20
      objectReference: {fileID: 0}
    - target: {fileID: 919132149155446097, guid: 4a5c4091d289a43fda4c16229ee11eed,
        type: 3}
      propertyPath: m_Name
      value: palmeraAltaBe
      objectReference: {fileID: 0}
    m_RemovedComponents: []
  m_SourcePrefab: {fileID: 100100000, guid: 4a5c4091d289a43fda4c16229ee11eed, type: 3}
