%YAML 1.1
%TAG !u! tag:unity3d.com,2011:
--- !u!1001 &2893851654285844040
PrefabInstance:
  m_ObjectHideFlags: 0
  serializedVersion: 2
  m_Modification:
    m_TransformParent: {fileID: 0}
    m_Modifications:
    - target: {fileID: -8679921383154817045, guid: 09c9d3a5adc1e4da0965eba89a6d2e55,
        type: 3}
      propertyPath: m_LocalPosition.x
      value: 17.94
      objectReference: {fileID: 0}
    - target: {fileID: -8679921383154817045, guid: 09c9d3a5adc1e4da0965eba89a6d2e55,
        type: 3}
      propertyPath: m_LocalPosition.y
      value: 0.18
      objectReference: {fileID: 0}
    - target: {fileID: -8679921383154817045, guid: 09c9d3a5adc1e4da0965eba89a6d2e55,
        type: 3}
      propertyPath: m_LocalPosition.z
      value: 26.31
      objectReference: {fileID: 0}
    - target: {fileID: -8679921383154817045, guid: 09c9d3a5adc1e4da0965eba89a6d2e55,
        type: 3}
      propertyPath: m_LocalRotation.x
      value: 0
      objectReference: {fileID: 0}
    - target: {fileID: -8679921383154817045, guid: 09c9d3a5adc1e4da0965eba89a6d2e55,
        type: 3}
      propertyPath: m_LocalRotation.y
      value: -0
      objectReference: {fileID: 0}
    - target: {fileID: -8679921383154817045, guid: 09c9d3a5adc1e4da0965eba89a6d2e55,
        type: 3}
      propertyPath: m_LocalRotation.z
      value: -0
      objectReference: {fileID: 0}
    - target: {fileID: -8679921383154817045, guid: 09c9d3a5adc1e4da0965eba89a6d2e55,
        type: 3}
      propertyPath: m_LocalRotation.w
      value: 1
      objectReference: {fileID: 0}
    - target: {fileID: -8679921383154817045, guid: 09c9d3a5adc1e4da0965eba89a6d2e55,
        type: 3}
      propertyPath: m_RootOrder
      value: 0
      objectReference: {fileID: 0}
    - target: {fileID: -8679921383154817045, guid: 09c9d3a5adc1e4da0965eba89a6d2e55,
        type: 3}
      propertyPath: m_LocalEulerAnglesHint.x
      value: 0
      objectReference: {fileID: 0}
    - target: {fileID: -8679921383154817045, guid: 09c9d3a5adc1e4da0965eba89a6d2e55,
        type: 3}
      propertyPath: m_LocalEulerAnglesHint.y
      value: 0
      objectReference: {fileID: 0}
    - target: {fileID: -8679921383154817045, guid: 09c9d3a5adc1e4da0965eba89a6d2e55,
        type: 3}
      propertyPath: m_LocalEulerAnglesHint.z
      value: 0
      objectReference: {fileID: 0}
    - target: {fileID: -8679921383154817045, guid: 09c9d3a5adc1e4da0965eba89a6d2e55,
        type: 3}
      propertyPath: m_LocalScale.x
      value: 20
      objectReference: {fileID: 0}
    - target: {fileID: -8679921383154817045, guid: 09c9d3a5adc1e4da0965eba89a6d2e55,
        type: 3}
      propertyPath: m_LocalScale.y
      value: 20
      objectReference: {fileID: 0}
    - target: {fileID: -8679921383154817045, guid: 09c9d3a5adc1e4da0965eba89a6d2e55,
        type: 3}
      propertyPath: m_LocalScale.z
      value: 20
      objectReference: {fileID: 0}
    - target: {fileID: 919132149155446097, guid: 09c9d3a5adc1e4da0965eba89a6d2e55,
        type: 3}
      propertyPath: m_Name
      value: palmeraBajaBe
      objectReference: {fileID: 0}
    m_RemovedComponents: []
  m_SourcePrefab: {fileID: 100100000, guid: 09c9d3a5adc1e4da0965eba89a6d2e55, type: 3}
